[
    {
        "name" : "com.informix.jdbc.IfxDriver",
        "allDeclaredConstructors" : true,
        "allPublicConstructors" : true,
        "allDeclaredMethods" : true,
        "allPublicMethods" : true,
        "allDeclaredClasses" : true,
        "allPublicClasses" : true
    },
    {
        "name" : "com.informix.jdbc.IfxSqliConnect",
        "allDeclaredConstructors" : true,
        "allPublicConstructors" : true,
        "allDeclaredMethods" : true,
        "allPublicMethods" : true,
        "allDeclaredClasses" : true,
        "allPublicClasses" : true
    },
    {
        "name": "com.informix.jdbc.IfxVarChar",
        "allDeclaredConstructors" : true,
        "allPublicConstructors" : true,
        "allDeclaredMethods" : true,
        "allPublicMethods" : true,
        "allDeclaredClasses" : true,
        "allPublicClasses" : true
    }
]