{
  "bundles": [
    {
      "name": "com.informix.msg.cals"
    },
    {
      "name": "com.informix.msg.csm"
    },
    {
      "name": "com.informix.msg.csm"
    },
    {
      "name": "com.informix.msg.css"
    },
    {
      "name": "com.informix.msg.eami"
    },
    {
      "name": "com.informix.msg.isam"
    },
    {
      "name": "com.informix.msg.itoxmsg"
    },
    {
      "name": "com.informix.msg.jdbc"
    },
    {
      "name": "com.informix.msg.jdbcminor"
    },
    {
      "name": "com.informix.msg.miapi"
    },
    {
      "name": "com.informix.msg.mls2"
    },
    {
      "name": "com.informix.msg.mls"
    },
    {
      "name": "com.informix.msg.nals"
    },
    {
      "name": "com.informix.msg.net"
    },
    {
      "name": "com.informix.msg.netsrv"
    },
    {
      "name": "com.informix.msg.optical"
    },
    {
      "name": "com.informix.msg.os"
    },
    {
      "name": "com.informix.msg.rds"
    },
    {
      "name": "com.informix.msg.sblob"
    },
    {
      "name": "com.informix.msg.security"
    },
    {
      "name": "com.informix.msg.shell"
    },
    {
      "name": "com.informix.msg.sql"
    },
    {
      "name": "com.informix.msg.sqli"
    },
    {
      "name": "com.informix.msg.util"
    },
    {
      "name": "com.informix.msg.xopen"
    },
    {
      "name": "com.informix.msg.xps"
    }
  ],
  "resources": [
    {
      "pattern": ".*LocaleEncodings$"
    }
  ]
}